{
    "key": "group_5efd50bed74c9",
    "title": "Visual",
    "fields": [
        {
            "key": "field_5efd62a76edf1",
            "label": "Logos",
            "name": "logos",
            "type": "repeater",
            "instructions": "<small>Apenas logos em <strong>SVG<\/strong> irão responder às cores definidas abaixo<\/small>",
            "required": 0,
            "conditional_logic": 0,
            "wrapper": {
                "width": "",
                "class": "",
                "id": ""
            },
            "collapsed": "",
            "min": 1,
            "max": 0,
            "layout": "block",
            "button_label": "Adicionar opção",
            "sub_fields": [
                {
                    "key": "field_5efd62c16edf2",
                    "label": "Arquivo",
                    "name": "opcao",
                    "type": "image",
                    "instructions": "",
                    "required": 1,
                    "conditional_logic": 0,
                    "wrapper": {
                        "width": "50",
                        "class": "",
                        "id": ""
                    },
                    "return_format": "url",
                    "preview_size": "thumbnail",
                    "library": "uploadedTo",
                    "min_width": "",
                    "min_height": "",
                    "min_size": "",
                    "max_width": "",
                    "max_height": "",
                    "max_size": "",
                    "mime_types": "svg,png"
                },
                {
                    "key": "field_5efd67cb36ece",
                    "label": "Alinhamento do menu",
                    "name": "menu",
                    "type": "button_group",
                    "instructions": "<small>Alinhamento dos itens do menu relativo ao logo<\/small>",
                    "required": 0,
                    "conditional_logic": 0,
                    "wrapper": {
                        "width": "50",
                        "class": "",
                        "id": ""
                    },
                    "choices": {
                        "flex-start": "Topo",
                        "center": "Centro",
                        "flex-end": "Base"
                    },
                    "allow_null": 0,
                    "default_value": "center",
                    "layout": "vertical",
                    "return_format": "value"
                }
            ]
        },
        {
            "key": "field_5efd50d101e80",
            "label": "Cores",
            "name": "cores",
            "type": "group",
            "instructions": "",
            "required": 0,
            "conditional_logic": 0,
            "wrapper": {
                "width": "",
                "class": "",
                "id": ""
            },
            "layout": "row",
            "sub_fields": [
                {
                    "key": "field_5efd50e401e81",
                    "label": "Principal",
                    "name": "principal",
                    "type": "color_picker",
                    "instructions": "<small>Padrão: #d4ff29<\/small>",
                    "required": 0,
                    "conditional_logic": 0,
                    "wrapper": {
                        "width": "",
                        "class": "",
                        "id": ""
                    },
                    "default_value": "#d4ff29"
                },
                {
                    "key": "field_5efd514201e84",
                    "label": "Complementar",
                    "name": "complementar",
                    "type": "color_picker",
                    "instructions": "<small>Padrão: #293fff<\/small>",
                    "required": 0,
                    "conditional_logic": 0,
                    "wrapper": {
                        "width": "",
                        "class": "",
                        "id": ""
                    },
                    "default_value": "#293fff"
                },
                {
                    "key": "field_5efd510401e82",
                    "label": "Preto",
                    "name": "preto",
                    "type": "color_picker",
                    "instructions": "<small>Padrão: #1b1b19<\/small>",
                    "required": 0,
                    "conditional_logic": 0,
                    "wrapper": {
                        "width": "",
                        "class": "",
                        "id": ""
                    },
                    "default_value": "#1b1b19"
                },
                {
                    "key": "field_5efd513601e83",
                    "label": "Branco",
                    "name": "branco",
                    "type": "color_picker",
                    "instructions": "<small>Padrão: #ffffff<\/small>",
                    "required": 0,
                    "conditional_logic": 0,
                    "wrapper": {
                        "width": "",
                        "class": "",
                        "id": ""
                    },
                    "default_value": "#ffffff"
                },
                {
                    "key": "field_5efd586d5ec96",
                    "label": "Texto sobre principal",
                    "name": "texto_principal",
                    "type": "button_group",
                    "instructions": "",
                    "required": 0,
                    "conditional_logic": 0,
                    "wrapper": {
                        "width": "",
                        "class": "",
                        "id": ""
                    },
                    "choices": {
                        "--preto": "Preto",
                        "--branco": "Branco"
                    },
                    "allow_null": 0,
                    "default_value": "--preto",
                    "layout": "horizontal",
                    "return_format": "value"
                },
                {
                    "key": "field_5efd58ac5ec97",
                    "label": "Texto sobre complementar",
                    "name": "texto_complementar",
                    "type": "button_group",
                    "instructions": "",
                    "required": 0,
                    "conditional_logic": 0,
                    "wrapper": {
                        "width": "",
                        "class": "",
                        "id": ""
                    },
                    "choices": {
                        "--preto": "Preto",
                        "--branco": "Branco"
                    },
                    "allow_null": 0,
                    "default_value": "--branco",
                    "layout": "horizontal",
                    "return_format": "value"
                },
                {
                    "key": "field_5efd5a0dee7fd",
                    "label": "Fundo",
                    "name": "fundo",
                    "type": "button_group",
                    "instructions": "",
                    "required": 0,
                    "conditional_logic": 0,
                    "wrapper": {
                        "width": "",
                        "class": "",
                        "id": ""
                    },
                    "choices": {
                        "--branco": "Branco",
                        "--preto": "Preto",
                        "--principal": "Principal",
                        "--complementar": "Complementar"
                    },
                    "allow_null": 0,
                    "default_value": "--branco",
                    "layout": "horizontal",
                    "return_format": "value"
                },
                {
                    "key": "field_5efd5a29ee7fe",
                    "label": "Texto",
                    "name": "texto",
                    "type": "button_group",
                    "instructions": "",
                    "required": 0,
                    "conditional_logic": 0,
                    "wrapper": {
                        "width": "",
                        "class": "",
                        "id": ""
                    },
                    "choices": {
                        "--preto": "Preto",
                        "--branco": "Branco",
                        "--principal": "Principal",
                        "--complementar": "Complementar"
                    },
                    "allow_null": 0,
                    "default_value": "--preto",
                    "layout": "horizontal",
                    "return_format": "value"
                }
            ]
        },
        {
            "key": "field_5f8de7d8fa141",
            "label": "Preview do paywall",
            "name": "preview-paywall",
            "type": "number",
            "instructions": "Quantidade de palavras exibida antes da mensagem de assinatura para usuários não-assinantes",
            "required": 0,
            "conditional_logic": 0,
            "wrapper": {
                "width": "",
                "class": "",
                "id": ""
            },
            "default_value": 150,
            "placeholder": "",
            "prepend": "",
            "append": "",
            "min": 50,
            "max": 1000,
            "step": 5
        }
    ],
    "location": [
        [
            {
                "param": "options_page",
                "operator": "==",
                "value": "acf-options-visual"
            }
        ]
    ],
    "menu_order": 0,
    "position": "normal",
    "style": "seamless",
    "label_placement": "top",
    "instruction_placement": "label",
    "hide_on_screen": "",
    "active": true,
    "description": "",
    "modified": 1603135543
}