{
    "key": "group_5ef377ecb6948",
    "title": "[Bloco] Loop",
    "fields": [
        {
            "key": "field_5efb98bb7e6f2",
            "label": "Exibir título da sessão?",
            "name": "titulo_exibir",
            "type": "true_false",
            "instructions": "",
            "required": 0,
            "conditional_logic": 0,
            "wrapper": {
                "width": "30",
                "class": "",
                "id": ""
            },
            "message": "",
            "default_value": 1,
            "ui": 1,
            "ui_on_text": "",
            "ui_off_text": ""
        },
        {
            "key": "field_5efb98d77e6f3",
            "label": "Título",
            "name": "titulo",
            "type": "text",
            "instructions": "",
            "required": 0,
            "conditional_logic": [
                [
                    {
                        "field": "field_5efb98bb7e6f2",
                        "operator": "==",
                        "value": "1"
                    },
                    {
                        "field": "field_5ef37838ad004",
                        "operator": "==",
                        "value": "fixos"
                    }
                ]
            ],
            "wrapper": {
                "width": "70",
                "class": "",
                "id": ""
            },
            "default_value": "",
            "placeholder": "",
            "prepend": "",
            "append": "",
            "maxlength": ""
        },
        {
            "key": "field_5ef377faad003",
            "label": "Variação",
            "name": "variacao",
            "type": "button_group",
            "instructions": "",
            "required": 1,
            "conditional_logic": 0,
            "wrapper": {
                "width": "",
                "class": "",
                "id": ""
            },
            "choices": {
                "dois": "Dois itens",
                "tres": "Três itens",
                "quatro": "Quatro itens",
                "lista": "Lista (até 12)"
            },
            "allow_null": 0,
            "default_value": "",
            "layout": "horizontal",
            "return_format": "value"
        },
        {
            "key": "field_5ef37838ad004",
            "label": "Fonte",
            "name": "fonte",
            "type": "button_group",
            "instructions": "",
            "required": 0,
            "conditional_logic": [
                [
                    {
                        "field": "field_5ef377faad003",
                        "operator": "==",
                        "value": "quatro"
                    }
                ],
                [
                    {
                        "field": "field_5ef377faad003",
                        "operator": "==",
                        "value": "lista"
                    }
                ]
            ],
            "wrapper": {
                "width": "40",
                "class": "",
                "id": ""
            },
            "choices": {
                "editoria": "Editoria",
                "autor": "Autor",
                "fixos": "Seleção (abaixo)"
            },
            "allow_null": 0,
            "default_value": "",
            "layout": "horizontal",
            "return_format": "value"
        },
        {
            "key": "field_5efb9bda3fe3f",
            "label": "Editoria",
            "name": "editoria",
            "type": "taxonomy",
            "instructions": "",
            "required": 0,
            "conditional_logic": [
                [
                    {
                        "field": "field_5ef37838ad004",
                        "operator": "==",
                        "value": "editoria"
                    }
                ]
            ],
            "wrapper": {
                "width": "60",
                "class": "",
                "id": ""
            },
            "taxonomy": "category",
            "field_type": "select",
            "allow_null": 0,
            "add_term": 0,
            "save_terms": 0,
            "load_terms": 0,
            "return_format": "object",
            "multiple": 0
        },
        {
            "key": "field_5efb9ef929df7",
            "label": "Autoria",
            "name": "autoria",
            "type": "post_object",
            "instructions": "",
            "required": 0,
            "conditional_logic": [
                [
                    {
                        "field": "field_5ef37838ad004",
                        "operator": "==",
                        "value": "autor"
                    }
                ]
            ],
            "wrapper": {
                "width": "60",
                "class": "",
                "id": ""
            },
            "post_type": [
                "autor"
            ],
            "taxonomy": "",
            "allow_null": 0,
            "multiple": 0,
            "return_format": "object",
            "ui": 1
        },
        {
            "key": "field_5ef37907ad005",
            "label": "Critério",
            "name": "criterio",
            "type": "button_group",
            "instructions": "",
            "required": 0,
            "conditional_logic": [
                [
                    {
                        "field": "field_5ef377faad003",
                        "operator": "==",
                        "value": "quatro"
                    },
                    {
                        "field": "field_5ef37838ad004",
                        "operator": "!=",
                        "value": "fixos"
                    }
                ],
                [
                    {
                        "field": "field_5ef377faad003",
                        "operator": "==",
                        "value": "lista"
                    },
                    {
                        "field": "field_5ef37838ad004",
                        "operator": "!=",
                        "value": "fixos"
                    }
                ]
            ],
            "wrapper": {
                "width": "",
                "class": "",
                "id": ""
            },
            "choices": {
                "recentes": "Itens recentes",
                "lidos": "Itens mais lidos",
                "aleatorios": "Aleatório"
            },
            "allow_null": 0,
            "default_value": "",
            "layout": "horizontal",
            "return_format": "value"
        },
        {
            "key": "field_5ef37954ad006",
            "label": "Seleção",
            "name": "selecao_livre",
            "type": "relationship",
            "instructions": "<small><em>A ordem da coluna da direita irá se refletir no site<\/em><\/small>",
            "required": 0,
            "conditional_logic": [
                [
                    {
                        "field": "field_5ef377faad003",
                        "operator": "==",
                        "value": "lista"
                    },
                    {
                        "field": "field_5ef37838ad004",
                        "operator": "==",
                        "value": "fixos"
                    }
                ]
            ],
            "wrapper": {
                "width": "",
                "class": "",
                "id": ""
            },
            "post_type": [
                "post",
                "edicao",
                "product",
                "page"
            ],
            "taxonomy": "",
            "filters": [
                "search",
                "post_type",
                "taxonomy"
            ],
            "elements": "",
            "min": 5,
            "max": 12,
            "return_format": "object"
        },
        {
            "key": "field_5ef398b71feb2",
            "label": "Seleção",
            "name": "selecao_quatro",
            "type": "relationship",
            "instructions": "<small><em>A ordem da coluna da direita irá se refletir no site<\/em><\/small>",
            "required": 0,
            "conditional_logic": [
                [
                    {
                        "field": "field_5ef377faad003",
                        "operator": "==",
                        "value": "quatro"
                    },
                    {
                        "field": "field_5ef37838ad004",
                        "operator": "==",
                        "value": "fixos"
                    }
                ]
            ],
            "wrapper": {
                "width": "",
                "class": "",
                "id": ""
            },
            "post_type": [
                "post",
                "edicao",
                "product",
                "page"
            ],
            "taxonomy": "",
            "filters": [
                "search",
                "post_type",
                "taxonomy"
            ],
            "elements": "",
            "min": 4,
            "max": 4,
            "return_format": "object"
        },
        {
            "key": "field_5ef386b356e24",
            "label": "Itens",
            "name": "dois",
            "type": "group",
            "instructions": "",
            "required": 0,
            "conditional_logic": [
                [
                    {
                        "field": "field_5ef377faad003",
                        "operator": "==",
                        "value": "dois"
                    }
                ]
            ],
            "wrapper": {
                "width": "",
                "class": "",
                "id": ""
            },
            "layout": "block",
            "sub_fields": [
                {
                    "key": "field_5ef386c356e25",
                    "label": "Item 1",
                    "name": "item_1",
                    "type": "post_object",
                    "instructions": "",
                    "required": 0,
                    "conditional_logic": 0,
                    "wrapper": {
                        "width": "50",
                        "class": "",
                        "id": ""
                    },
                    "post_type": [
                        "post",
                        "edicao",
                        "product"
                    ],
                    "taxonomy": "",
                    "allow_null": 0,
                    "multiple": 0,
                    "return_format": "object",
                    "ui": 1
                },
                {
                    "key": "field_5ef386e556e26",
                    "label": "Item 2",
                    "name": "item_2",
                    "type": "post_object",
                    "instructions": "",
                    "required": 0,
                    "conditional_logic": 0,
                    "wrapper": {
                        "width": "50",
                        "class": "",
                        "id": ""
                    },
                    "post_type": [
                        "post",
                        "edicao",
                        "product"
                    ],
                    "taxonomy": "",
                    "allow_null": 0,
                    "multiple": 0,
                    "return_format": "object",
                    "ui": 1
                }
            ]
        },
        {
            "key": "field_5ef386f256e27",
            "label": "Itens",
            "name": "tres",
            "type": "group",
            "instructions": "",
            "required": 0,
            "conditional_logic": [
                [
                    {
                        "field": "field_5ef377faad003",
                        "operator": "==",
                        "value": "tres"
                    }
                ]
            ],
            "wrapper": {
                "width": "",
                "class": "",
                "id": ""
            },
            "layout": "block",
            "sub_fields": [
                {
                    "key": "field_5ef386f256e28",
                    "label": "Item 1",
                    "name": "item_1",
                    "type": "post_object",
                    "instructions": "",
                    "required": 0,
                    "conditional_logic": 0,
                    "wrapper": {
                        "width": "33",
                        "class": "",
                        "id": ""
                    },
                    "post_type": [
                        "post",
                        "edicao",
                        "product"
                    ],
                    "taxonomy": "",
                    "allow_null": 0,
                    "multiple": 0,
                    "return_format": "object",
                    "ui": 1
                },
                {
                    "key": "field_5ef386f256e29",
                    "label": "Item 2",
                    "name": "item_2",
                    "type": "post_object",
                    "instructions": "",
                    "required": 0,
                    "conditional_logic": 0,
                    "wrapper": {
                        "width": "34",
                        "class": "",
                        "id": ""
                    },
                    "post_type": [
                        "post",
                        "edicao",
                        "product"
                    ],
                    "taxonomy": "",
                    "allow_null": 0,
                    "multiple": 0,
                    "return_format": "object",
                    "ui": 1
                },
                {
                    "key": "field_5ef386f856e2a",
                    "label": "Item 3",
                    "name": "item_3",
                    "type": "post_object",
                    "instructions": "",
                    "required": 0,
                    "conditional_logic": 0,
                    "wrapper": {
                        "width": "33",
                        "class": "",
                        "id": ""
                    },
                    "post_type": [
                        "post",
                        "edicao",
                        "product"
                    ],
                    "taxonomy": "",
                    "allow_null": 0,
                    "multiple": 0,
                    "return_format": "object",
                    "ui": 1
                }
            ]
        }
    ],
    "location": [
        [
            {
                "param": "block",
                "operator": "==",
                "value": "acf\/loop"
            }
        ]
    ],
    "menu_order": 0,
    "position": "normal",
    "style": "default",
    "label_placement": "top",
    "instruction_placement": "label",
    "hide_on_screen": "",
    "active": 1,
    "description": "",
    "modified": 1594354471
}